[
{
    "name" : "Mix'n'match",
    "description" : "GLAM catalog/Wikidata matching tool; red link lists on steroids.",
    "url" : "http://tools.wmflabs.org/mix-n-match",
    "keywords" : "glam, wikidata, redlinks",
    "author" : "Magnus Manske"
},
{
    "name" : "Painters",
    "description" : "Find creators for paintings on Wikidata",
    "url" : "http://tools.wmflabs.org/mix-n-match/painters.php",
    "keywords" : "creator, painter, painters, painting, paintings, glam, wikidata",
    "author" : "Magnus Manske"
}
]